RとJ-LIWC2015によるテキスト解析
…
# データフレームの作成
# 分析対象の列名は"text"とする
texts_df <- data.frame(text = texts)

liwc_results_df <- texts_df |> liwc_analysis()

dplyr::tibble(liwc_results_df)
#> # A tibble: 553 × 85
#>    doc_id    WC   Dic `function` pronoun ppron     i    we   you shehe  they
#>    <chr>  <int> <dbl>      <dbl>   <dbl> <dbl> <dbl> <dbl> <dbl> <dbl> <dbl>
#>  1 1          4  50         25      0        0     0     0     0     0     0
#>  2 2          2   0          0      0        0     0     0     0     0     0
#>  3 3          4 100         25      0        0     0     0     0     0     0
#>  4 4         75  76         46.7    5.33     0     0     0     0     0     0
#>  5 5         80  83.8       47.5    3.75     0     0     0     0     0     0
#>  6 6         12  91.7       50      8.33     0     0     0     0     0     0
#>  7 7         10  70         40     10       10     0     0    10     0     0
#>  8 8         62  69.4       45.2    1.61     0     0     0     0     0     0
#>  9 9         15  66.7       46.7    6.67     0     0     0     0     0     0
#> 10 10        22  68.2       50      0        0     0     0     0     0     0
#> # ℹ 543 more rows
#> # ℹ 74 more variables: ipron <dbl>, casepart <dbl>, auxverb <dbl>,
#> #   adverb <dbl>, conj <dbl>, negate <dbl>, verb <dbl>, interrog <dbl>,
#> #   number <dbl>, quant <dbl>, adjverb <dbl>, preadj <dbl>, affect <dbl>,
#> #   posemo <dbl>, negemo <dbl>, anx <dbl>, anger <dbl>, sad <dbl>,
#> #   social <dbl>, family <dbl>, friend <dbl>, female <dbl>, male <dbl>,
#> #   cogproc <dbl>, insight <dbl>, cause <dbl>, discrep <dbl>, tentat <dbl>,
…
# 自分のデータをread_text_files()で読み込むことも可能
# 'filetype'（拡張子）を必要に応じて変更
# file1 <- read_text_files("/path/to/directory/", filetype = "txt")

# テキストファイルの分析
# サンプルデータのため、最低限の前処理（デフォルト）のみを行っている
# 実際のデータを分析する際には、適切な前処理を行う必要がある
liwc_results_files <- files1 |> liwc_analysis()

dplyr::tibble(liwc_results_files)
#> # A tibble: 129 × 85
#>    doc_id         WC   Dic `function` pronoun ppron      i     we
#>    <chr>       <int> <dbl>      <dbl>   <dbl> <dbl>  <dbl>  <dbl>
#>  1 data001.txt  8774  64.0       34.8    3.93 0.809 0.399  0.194 
#>  2 data002.txt 14291  65.7       35.5    3.74 0.917 0.567  0.238 
#>  3 data003.txt  7315  65.8       34.0    4.02 0.902 0.574  0.123 
#>  4 data004.txt  8368  62.0       32.7    5.65 1.55  0.406  0.0478
#>  5 data005.txt 13223  59.6       32.2    4.30 1.31  0.159  0.0908
#>  6 data006.txt 11948  59.7       33.6    4.36 1.19  0.737  0.0251
#>  7 data007.txt  8550  63.5       36.5    4.62 0.795 0.0351 0.0234
#>  8 data008.txt 19817  68.3       38.2    5.63 1.18  0.636  0.0908
#>  9 data009.txt 19010  67.4       37.1    5.52 1.38  0.0789 0.0473
#> 10 data010.txt 10542  64.5       33.3    4.23 1.07  0.0664 0.0854
#> # ℹ 119 more rows
#> # ℹ 77 more variables: you <dbl>, shehe <dbl>, they <dbl>,
#> #   ipron <dbl>, casepart <dbl>, auxverb <dbl>, adverb <dbl>,
#> #   conj <dbl>, negate <dbl>, verb <dbl>, interrog <dbl>,
#> #   number <dbl>, quant <dbl>, adjverb <dbl>, preadj <dbl>,
#> #   affect <dbl>, posemo <dbl>, negemo <dbl>, anx <dbl>,
#> #   anger <dbl>, sad <dbl>, social <dbl>, family <dbl>, …
#> # ℹ Use `print(n = ...)` to see more rows
…
